a-AA_AO_001-d1p3s0	round1	B1
a-AA_AO_001-d1p6s0	round1	B1
a-AA_AO_002-d1p1s0	round1	B1
a-AA_AO_002-d1p2s2	round1	B1
a-AA_AO_002-d1p2s3	round1	B1
a-AA_AO_002-d1p5s0	round1	B1
a-AA_AP_001-d1p1s1	round1	A2
a-AA_AP_001-d1p3s0	round1	A2
a-AA_AP_001-d1p4s0	round1	A2
a-AA_AP_001-d1p4s1	round1	A2
a-AA_AP_001-d1p5s0	round1	A2
a-AA_AP_001-d1p7s0	round1	A2
a-AA_AP_001-d1p8s1	round1	A2
a-AA_FM_001-d1p1s0	round1	B1
a-BLAH_2L_001-d1p1s0	round1	B2
a-BLAH_2L_001-d1p2s0	round1	B2
a-BLAH_2L_001-d1p2s2	round1	B2
a-BLAH_2L_001-d1p2s4	round1	B2
a-BLAH_2L_001-d1p2s5	round1	B2
a-BLAH_2L_001-d1p2s6	round1	B2
a-BLAH_2L_001-d1p2s7	round1	B2
a-BLAH_2L_001-d1p3s0	round1	B2
a-BRY_A1_001-d1p1s0	round1	A2+
a-BRY_A1_001-d1p1s1	round1	A2+
a-BRY_A1_001-d1p1s3	round1	A2+
a-BRY_A1_001-d1p2s0	round1	A2+
a-BRY_A1_001-d1p2s1	round1	A2+
a-BRY_A1_001-d1p3s0	round1	A2+
a-BRY_A1_001-d1p3s1	round1	A2+
a-BRY_B6_001-d1p1s0	round1	A1
a-BRY_B6_001-d1p2s1	round1	A1
a-BRY_B6_001-d1p2s2	round1	A1
a-BRY_B6_001-d1p3s0	round1	A1
a-BRY_B6_001-d1p4s1	round1	A1
a-BRY_B6_001-d1p5s0	round1	A1
a-BRY_B7_001-d1p1s0	round1	A1+
a-BRY_B7_001-d1p3s0	round1	A1+
a-BRY_B7_001-d1p3s2	round1	A1+
a-BRY_B7_001-d1p4s0	round1	A1+
a-BRY_B7_001-d1p5s0	round1	A1+
a-HRD_1A_172-d1p2s1	round1	C1
a-HRD_1A_172-d1p2s2	round1	C1
a-HRD_1A_172-d1p2s3	round1	C1
a-HRD_1A_172-d1p2s9	round1	C1
a-HRD_1A_172-d1p2s10	round1	C1
a-HRD_1A_172-d1p3s0	round1	C1
a-HRD_1A_172-d1p4s1	round1	C1
a-HRD_C1_091-d1p1s0	round1	A1+
a-HRD_C1_091-d1p2s0	round1	A1+
